Data Manipulation
…
select(cleaned_data, name:systematic_name)

# Select all columns except number and GWEIGHT

select(cleaned_data, -number, -GWEIGHT)

Exercise

Create a new dataframe from cleaned_data with all variables except number, GID, YORF and GWEIGHT. Save it in a new object called cleaned_data_new.

Solution

(cleaned_data_new <- cleaned_data %>% select(-number, -GID, -YORF, -GWEIGHT))

## # A tibble: 5,537 x 40
##    name  BP    MF    systematic_name G0.05  G0.1 G0.15  G0.2 G0.25  G0.3
##    <chr> <chr> <chr> <chr>           <dbl> <dbl> <dbl> <dbl> <dbl> <dbl>
##  1 "SFB " ER " mo " YNL049C "     -0.24 -0.13 -0.21 -0.15 -0.05 -0.05
##  2 "    " bi " mo " YNL095C "      0.28  0.13 -0.4  -0.48 -0.11  0.17
##  3 "QRI " pr " me " YDL104C "     -0.02 -0.27 -0.27 -0.02  0.24  0.25
##  4 "CFT " mR " RN " YLR115W "     -0.33 -0.41 -0.24 -0.03 -0.03  0   
##  5 "SSO " ve " t- " YMR183C "      0.05  0.02  0.4   0.34 -0.13 -0.14
##  6 "PSP " bi " mo " YML017W "     -0.69 -0.03  0.23  0.2   0    -0.27
##  7 "RIB " ri " ps " YOL066C "     -0.55 -0.3  -0.12 -0.03 -0.16 -0.11
##  8 "VMA " va " hy " YPR036W "     -0.75 -0.12 -0.07  0.02 -0.32 -0.41
##  9 "EDC " de " mo " YEL015W "     -0.24 -0.22  0.14  0.06  0    -0.13
## 10 "VPS " pr " pr " YOR069W "     -0.16 -0.38  0.05  0.14 -0.04 -0.01
## # ... with 5,527 more rows, and 30 more variables: N0.05 <dbl>,
## #   N0.1 <dbl>, N0.15 <dbl>, N0.2 <dbl>, N0.25 <dbl>, N0.3 <dbl>,
## #   P0.05 <dbl>, P0.1 <dbl>, P0.15 <dbl>, P0.2 <dbl>, P0.25 <dbl>,
## #   P0.3 <dbl>, S0.05 <dbl>, S0.1 <dbl>, S0.15 <dbl>, S0.2 <dbl>,
## #   S0.25 <dbl>, S0.3 <dbl>, L0.05 <dbl>, L0.1 <dbl>, L0.15 <dbl>,
## #   L0.2 <dbl>, L0.25 <dbl>, L0.3 <dbl>, U0.05 <dbl>, U0.1 <dbl>,
## #   U0.15 <dbl>, U0.2 <dbl>, U0.25 <dbl>, U0.3 <dbl>
…
Gathering

Identify the variables which must be gathered resulting in a tidy data frame. Tip: select columns between with operator :

gather( <put variables here> , key="sample", value="expression")

Gathering all together

cleaned_data <- original_data %>%
                separate(NAME, c("name", "BP", "MF", "systematic_name", "number"), sep="\\|\\|") %>%
                select(-number, -GID, -YORF, -GWEIGHT) %>%
                gather(G0.05:U0.3, key="sample", value="expression")
cleaned_data

## # A tibble: 199,332 x 6
##    name    BP           MF               systematic_name sample expression
##    <chr>   <chr>        <chr>            <chr>           <chr>       <dbl>
##  1 "SFB2  " ER to Gol " molecular fun " YNL049C "     G0.05       -0.24
##  2 "      " biologica " molecular fun " YNL095C "     G0.05        0.28
##  3 "QRI7  " proteolys " metalloendope " YDL104C "     G0.05       -0.02
##  4 "CFT2  " mRNA poly " RNA binding "  " YLR115W "     G0.05       -0.33
##  5 "SSO2  " vesicle f " t-SNARE activ " YMR183C "     G0.05        0.05
##  6 "PSP2  " biologica " molecular fun " YML017W "     G0.05       -0.69
##  7 "RIB2  " riboflavi " pseudouridyla " YOL066C "     G0.05       -0.55
##  8 "VMA13 " vacuolar  " hydrogen-tran " YPR036W "     G0.05       -0.75
##  9 "EDC3  " deadenyly " molecular fun " YEL015W "     G0.05       -0.24
## 10 "VPS5  " protein r " protein trans " YOR069W "     G0.05       -0.16
## # ... with 199,322 more rows
…
PSP2
biological process unknown
molecular function unknown
YML017W
G0.05
-0.69

Rename a column

rename(cleaned_data, gene_name = name)

## # A tibble: 199,332 x 6
##    gene_name  BP          MF             systematic_name sample expression
##    <chr>      <chr>       <chr>          <chr>           <chr>       <dbl>
##  1 "SFB2     " ER to Go " molecular f " YNL049C "     G0.05       -0.24
##  2 "         " biologic " molecular f " YNL095C "     G0.05        0.28
##  3 "QRI7     " proteoly " metalloendo " YDL104C "     G0.05       -0.02
##  4 "CFT2     " mRNA pol " RNA binding " YLR115W "     G0.05       -0.33
##  5 "SSO2     " vesicle  " t-SNARE act " YMR183C "     G0.05        0.05
##  6 "PSP2     " biologic " molecular f " YML017W "     G0.05       -0.69
##  7 "RIB2     " riboflav " pseudouridy " YOL066C "     G0.05       -0.55
##  8 "VMA13    " vacuolar " hydrogen-tr " YPR036W "     G0.05       -0.75
##  9 "EDC3     " deadenyl " molecular f " YEL015W "     G0.05       -0.24
## 10 "VPS5     " protein  " protein tra " YOR069W "     G0.05       -0.16
## # ... with 199,322 more rows

Filter rows with filter()

Subset observations based on their values.

Syntax:

filter(<name of the data frame>,<argument(s) that filter the data frame>)

filter(cleaned_data, BP == " mRNA polyadenylylation* ")

## Warning: package 'bindrcpp' was built under R version 3.4.4

## # A tibble: 540 x 6
##    name      BP              MF          systematic_name sample expression
##    <chr>     <chr>           <chr>       <chr>           <chr>       <dbl>
##  1 "CFT2    " mRNA polyade " RNA bind " YLR115W "     G0.05       -0.33
##  2 "HRP1    " mRNA polyade " RNA bind " YOL123W "     G0.05       -0.35
##  3 "MPE1    " mRNA polyade " RNA bind " YKL059C "     G0.05       -0.23
##  4 "PTA1    " mRNA polyade " RNA bind " YAL043C "     G0.05       -0.44
##  5 "YSH1    " mRNA polyade " RNA bind " YLR277C "     G0.05       -0.45
##  6 "CLP1    " mRNA polyade " RNA bind " YOR250C "     G0.05       -0.01
##  7 "FIP1    " mRNA polyade " protein  " YJR093C "     G0.05       -0.12
##  8 "RNA15   " mRNA polyade " RNA bind " YGL044C "     G0.05       -0.1 
##  9 "RNA14   " mRNA polyade " RNA bind " YMR061W "     G0.05       -0.13
## 10 "YTH1    " mRNA polyade " RNA bind " YPR107C "     G0.05        0.39
## # ... with 530 more rows
…
Powerfull when paired with group_by()

This changes the unit of analysis from the complete dataset to individual groups

Example:

# The exactly above code applied to a data frame grouped by nutrient and rate, 
# we get the average delay per date
cleaned_data %>% 
  group_by(nutrient, rate) %>%
    summarise(mean_expression_by_rate = mean(expression, na.rm = TRUE), count = n())

## # A tibble: 36 x 4
## # Groups:   nutrient [?]
##    nutrient  rate mean_expression_by_rate count
##    <chr>    <dbl>                   <dbl> <int>
##  1 G         0.05                 0.0209   5537
##  2 G         0.1                  0.0171   5537
##  3 G         0.15                 0.0388   5537
##  4 G         0.2                  0.0479   5537
##  5 G         0.25                 0.0145   5537
##  6 G         0.3                 -0.00551  5537
##  7 L         0.05                 0.0257   5537
##  8 L         0.1                  0.0305   5537
##  9 L         0.15                 0.0104   5537
## 10 L         0.2                  0.00216  5537
## # ... with 26 more rows
…
